{
  "LR": {
    "steps": [
      0,
      1,
      2,
      3,
      4,
      5
    ],
    "timestamps": [
      "2023-01-04T23:01:01.833154",
      "2023-01-05T00:30:17.805932",
      "2023-01-05T02:05:41.645062",
      "2023-01-05T03:48:49.956234",
      "2023-01-05T05:31:11.683230",
      "2023-01-05T07:17:18.659603"
    ],
    "values": [
      0.0001,
      0.0001,
      0.0001,
      0.0001,
      0.0001,
      0.0001
    ]
  },
  "Loss": {
    "steps": [
      900,
      1800,
      2700,
      3600,
      4500,
      5400,
      6300,
      7200,
      8100,
      9000,
      9900,
      10800,
      12323,
      13223,
      14123,
      15023,
      15923,
      16823,
      17723,
      18623,
      19523,
      20423,
      21323,
      22223,
      23746,
      24646,
      25546,
      26446,
      27346,
      28246,
      29146,
      30046,
      30946,
      31846,
      32746,
      33646,
      35169,
      36069,
      36969,
      37869,
      38769,
      39669,
      40569,
      41469,
      42369,
      43269,
      44169,
      45069,
      46592,
      47492,
      48392,
      49292,
      50192,
      51092,
      51992,
      52892,
      53792,
      54692,
      55592,
      56492,
      58015
    ],
    "timestamps": [
      "2023-01-04T23:05:54.496412",
      "2023-01-04T23:10:41.770080",
      "2023-01-04T23:15:27.284323",
      "2023-01-04T23:20:13.072791",
      "2023-01-04T23:24:57.400089",
      "2023-01-04T23:29:40.931566",
      "2023-01-04T23:34:29.250343",
      "2023-01-04T23:39:32.887316",
      "2023-01-04T23:47:04.530484",
      "2023-01-04T23:52:30.654678",
      "2023-01-04T23:57:31.587948",
      "2023-01-05T00:02:59.463411",
      "2023-01-05T00:36:30.294301",
      "2023-01-05T00:41:57.612199",
      "2023-01-05T00:47:17.616378",
      "2023-01-05T00:53:42.855471",
      "2023-01-05T00:58:58.009259",
      "2023-01-05T01:04:07.723677",
      "2023-01-05T01:09:58.721757",
      "2023-01-05T01:15:43.065254",
      "2023-01-05T01:22:10.641178",
      "2023-01-05T01:28:11.028665",
      "2023-01-05T01:33:28.293611",
      "2023-01-05T01:39:33.203008",
      "2023-01-05T02:11:35.630208",
      "2023-01-05T02:17:06.019333",
      "2023-01-05T02:24:11.478401",
      "2023-01-05T02:29:43.797292",
      "2023-01-05T02:36:03.054685",
      "2023-01-05T02:42:03.250385",
      "2023-01-05T02:48:05.136034",
      "2023-01-05T02:54:37.731940",
      "2023-01-05T02:59:44.094246",
      "2023-01-05T03:06:45.575819",
      "2023-01-05T03:13:44.655724",
      "2023-01-05T03:18:49.643013",
      "2023-01-05T03:55:00.709655",
      "2023-01-05T04:01:21.098533",
      "2023-01-05T04:07:36.941799",
      "2023-01-05T04:12:40.672819",
      "2023-01-05T04:19:51.592680",
      "2023-01-05T04:26:13.709456",
      "2023-01-05T04:33:07.908911",
      "2023-01-05T04:39:45.451240",
      "2023-01-05T04:46:53.688071",
      "2023-01-05T04:51:56.065615",
      "2023-01-05T04:57:13.823726",
      "2023-01-05T05:03:33.159593",
      "2023-01-05T05:37:31.932499",
      "2023-01-05T05:44:37.115365",
      "2023-01-05T05:50:45.197965",
      "2023-01-05T05:56:46.309810",
      "2023-01-05T06:03:07.906309",
      "2023-01-05T06:09:05.880268",
      "2023-01-05T06:16:02.792625",
      "2023-01-05T06:21:43.514187",
      "2023-01-05T06:28:40.600101",
      "2023-01-05T06:34:45.411018",
      "2023-01-05T06:41:21.526169",
      "2023-01-05T06:48:15.660605",
      "2023-01-05T07:22:31.718220"
    ],
    "values": [
      0.16532208293676376,
      0.15793338522315026,
      0.17281611621379853,
      0.16790886640548705,
      0.16385482862591744,
      0.1698266515135765,
      0.15284582912921907,
      0.1611384356021881,
      0.1648581863939762,
      0.17012126743793488,
      0.15948158904910087,
      0.15090670958161354,
      0.15988111704587937,
      0.15194952994585037,
      0.1552427090704441,
      0.15152881801128387,
      0.16705524012446404,
      0.16082788541913032,
      0.15025462523102762,
      0.15748082116246223,
      0.14846339777112008,
      0.14729724526405336,
      0.15033747360110283,
      0.16754575878381728,
      0.16683309599757196,
      0.1566874887049198,
      0.16136123836040497,
      0.14947068005800246,
      0.15474306136369706,
      0.14207783222198486,
      0.14923144668340682,
      0.15338239699602127,
      0.15620910227298737,
      0.14669911831617355,
      0.161701919734478,
      0.1527840192615986,
      0.163544921875,
      0.15349251464009284,
      0.1399611508846283,
      0.1409214134514332,
      0.13972402542829512,
      0.14055616706609725,
      0.14009540766477585,
      0.16094533249735832,
      0.14385760009288787,
      0.15026189133524895,
      0.15244721502065658,
      0.14455193996429444,
      0.14550374925136567,
      0.14060611993074418,
      0.1375090302526951,
      0.13696160823106765,
      0.14372251957654952,
      0.139437422901392,
      0.14359468832612038,
      0.14453267470002173,
      0.14340669333934783,
      0.15151490777730942,
      0.14944520741701126,
      0.14767664179205894,
      0.14434229508042334
    ]
  },
  "Total training loss": {
    "steps": [
      14,
      15,
      16,
      17,
      18
    ],
    "timestamps": [
      "2023-01-05T00:07:58.025186",
      "2023-01-05T01:43:08.513728",
      "2023-01-05T03:24:11.084014",
      "2023-01-05T05:09:02.107107",
      "2023-01-05T06:52:47.451484"
    ],
    "values": [
      0.16222916649147226,
      0.15498311877782903,
      0.15465094408183927,
      0.14649464918366875,
      0.14353799469821832
    ]
  },
  "Val_Loss": {
    "steps": [
      14,
      15,
      16,
      17,
      18
    ],
    "timestamps": [
      "2023-01-05T00:30:17.076236",
      "2023-01-05T02:05:40.964124",
      "2023-01-05T03:48:49.956045",
      "2023-01-05T05:31:10.933248",
      "2023-01-05T07:17:17.896938"
    ],
    "values": [
      0.15123279366795644,
      0.14868705580246866,
      0.16070395652955388,
      0.14642685445374629,
      0.14068120440717993
    ]
  },
  "Val_r_error": {
    "steps": [
      14,
      15,
      16,
      17,
      18
    ],
    "timestamps": [
      "2023-01-05T00:30:17.076308",
      "2023-01-05T02:05:40.964149",
      "2023-01-05T03:48:49.956125",
      "2023-01-05T05:31:10.933289",
      "2023-01-05T07:17:17.896965"
    ],
    "values": [
      1.324376217989742,
      1.3233179215475526,
      1.3706972816919236,
      1.2874318620387324,
      1.3045169022397778
    ]
  },
  "Val_t_error": {
    "steps": [
      14,
      15,
      16,
      17,
      18
    ],
    "timestamps": [
      "2023-01-05T00:30:17.076294",
      "2023-01-05T02:05:40.964145",
      "2023-01-05T03:48:49.956102",
      "2023-01-05T05:31:10.933284",
      "2023-01-05T07:17:17.896960"
    ],
    "values": [
      44.29719001452478,
      43.80484152270739,
      46.15415138390799,
      43.59833677317492,
      42.46588653920637
    ]
  }
}