{
  "BASE_LEARNING_RATE": 0.0001,
  "batch_size": 18,
  "data_folder": "/storage/odometry/dataset/sequences",
  "dataset": "kitti",
  "dropout": 0.0,
  "epochs": 300,
  "loss": "simple",
  "maps_folder": "local_maps_0.1",
  "max_depth": 100.0,
  "max_r": 2,
  "max_t": 1,
  "network": "PWC_f1",
  "norm": "bn",
  "num_worker": 0,
  "occlusion_kernel": 5,
  "occlusion_threshold": 3,
  "optimizer": "adam",
  "precision": "O0",
  "rescale_rot": 1,
  "rescale_transl": 1,
  "resume": null,
  "savemodel": "./checkpoints_test_2/",
  "seed": 588076881,
  "test_sequence": 0,
  "use_reflectance": false,
  "weights": null
}