{
  "artifacts": [],
  "command": "main",
  "experiment": {
    "base_dir": "/app/CMRNet",
    "dependencies": [
      "numpy==1.19.5"
    ],
    "mainfile": "main_visibility_CALIB.py",
    "name": "CMRNet",
    "repositories": [],
    "sources": [
      [
        "main_visibility_CALIB.py",
        "_sources/main_visibility_CALIB_2b56039a906e51792dc778218a508432.py"
      ]
    ]
  },
  "heartbeat": "2023-01-09T07:20:03.145740",
  "host": {
    "ENV": {},
    "cpu": "11th Gen Intel(R) Core(TM) i9-11950H @ 2.60GHz",
    "gpus": {
      "driver_version": "515.86.01",
      "gpus": [
        {
          "model": "NVIDIA RTX A4000 Laptop GPU",
          "persistence_mode": true,
          "total_memory": 8192
        }
      ]
    },
    "hostname": "docker",
    "os": [
      "Linux",
      "Linux-5.15.0-56-generic-x86_64-with-Ubuntu-18.04-bionic"
    ],
    "python_version": "3.6.9"
  },
  "meta": {
    "command": "main",
    "options": {
      "--beat_interval": null,
      "--capture": null,
      "--comment": null,
      "--debug": false,
      "--enforce_clean": false,
      "--file_storage": "./logs_3",
      "--force": false,
      "--help": false,
      "--loglevel": null,
      "--mongo_db": null,
      "--name": null,
      "--pdb": false,
      "--print_config": false,
      "--priority": null,
      "--queue": false,
      "--sql": null,
      "--tiny_db": null,
      "--unobserved": false,
      "COMMAND": null,
      "UPDATE": [
        "batch_size=18",
        "data_folder=/storage/odometry/dataset/sequences",
        "epochs=300",
        "max_r=2",
        "max_t=0.6",
        "BASE_LEARNING_RATE=0.0001",
        "savemodel=./checkpoints_test_3/",
        "test_sequence=0"
      ],
      "help": false,
      "with": true
    }
  },
  "resources": [],
  "result": 31.428705870278264,
  "start_time": "2023-01-07T13:00:03.159029",
  "status": "INTERRUPTED",
  "stop_time": "2023-01-09T07:20:03.153493"
}