INFO - CMRNet - Running command 'main'
INFO - CMRNet - Started run with ID "1"
simple
Test Sequence:  00
TEST SET: Using this file: /storage/odometry/dataset/sequences/test_RT_seq00_10.00_2.00.csv
11423
635
253
11423
Number of model parameters: 37116287
This is 0-th epoch
/home/cmr_user/.local/lib/python3.6/site-packages/torch/optim/lr_scheduler.py:417: UserWarning: To get the last learning rate computed by the scheduler, please use `get_last_lr()`.
  "please use `get_last_lr()`.", UserWarning)
Iter 50/635 training loss = 1.714, time = 0.0773, time for 50 iter: 245.1509
Iter 100/635 training loss = 1.587, time = 0.0761, time for 50 iter: 240.0228
Iter 150/635 training loss = 1.454, time = 0.0745, time for 50 iter: 241.1983
Iter 200/635 training loss = 1.326, time = 0.0729, time for 50 iter: 240.8231
Iter 250/635 training loss = 1.303, time = 0.0749, time for 50 iter: 238.7218
Iter 300/635 training loss = 1.284, time = 0.0755, time for 50 iter: 237.6639
Iter 350/635 training loss = 1.299, time = 0.0732, time for 50 iter: 238.8265
Iter 400/635 training loss = 1.268, time = 0.0763, time for 50 iter: 240.1139
Iter 450/635 training loss = 1.244, time = 0.0737, time for 50 iter: 241.5481
Iter 500/635 training loss = 1.283, time = 0.0706, time for 50 iter: 243.0075
Iter 550/635 training loss = 1.213, time = 0.0769, time for 50 iter: 239.7240
Iter 600/635 training loss = 1.232, time = 0.0754, time for 50 iter: 240.9103
------------------------------------
epoch 0 total training loss = 1.340
Total epoch time = 3052.42
------------------------------------
Iter 50 test loss = 1.291 , time = 0.04
Iter 100 test loss = 1.278 , time = 0.04
Iter 150 test loss = 1.201 , time = 0.03
Iter 200 test loss = 1.290 , time = 0.04
Iter 250 test loss = 1.314 , time = 0.04
------------------------------------
total test loss = 1.270
total traslation error: 152.68287720183554 cm
total rotation error: 5.71815582666857
------------------------------------
Model saved as ./checkpoints_test/kitti/00/checkpoint_r10.00_t2.00_e0_1.270.tar
This is 1-th epoch
Iter 50/635 training loss = 1.277, time = 0.0744, time for 50 iter: 240.6016
Iter 100/635 training loss = 1.255, time = 0.0722, time for 50 iter: 260.0374
Iter 150/635 training loss = 1.226, time = 0.0723, time for 50 iter: 238.1147
Iter 200/635 training loss = 1.225, time = 0.0752, time for 50 iter: 244.5638
Iter 250/635 training loss = 1.200, time = 0.0745, time for 50 iter: 263.8701
Iter 300/635 training loss = 1.241, time = 0.0694, time for 50 iter: 292.1519
Iter 350/635 training loss = 1.172, time = 0.0715, time for 50 iter: 278.3226
Iter 400/635 training loss = 1.204, time = 0.0730, time for 50 iter: 239.5783
Iter 450/635 training loss = 1.183, time = 0.0733, time for 50 iter: 263.3428
Iter 500/635 training loss = 1.156, time = 0.0751, time for 50 iter: 324.3840
Iter 550/635 training loss = 1.157, time = 0.0715, time for 50 iter: 271.6954
Iter 600/635 training loss = 1.147, time = 0.0764, time for 50 iter: 302.3442
------------------------------------
epoch 1 total training loss = 1.204
Total epoch time = 3446.18
------------------------------------
Iter 50 test loss = 1.162 , time = 0.04
Iter 100 test loss = 1.206 , time = 0.04
Iter 150 test loss = 1.137 , time = 0.03
Iter 200 test loss = 1.181 , time = 0.04
Iter 250 test loss = 1.121 , time = 0.04
------------------------------------
total test loss = 1.156
total traslation error: 144.46735867800837 cm
total rotation error: 5.27180139095976
------------------------------------
Model saved as ./checkpoints_test/kitti/00/checkpoint_r10.00_t2.00_e1_1.156.tar
This is 2-th epoch
Iter 50/635 training loss = 1.243, time = 0.0729, time for 50 iter: 304.8410
Iter 100/635 training loss = 1.158, time = 0.0756, time for 50 iter: 291.3946
Iter 150/635 training loss = 1.185, time = 0.0770, time for 50 iter: 256.7426
Iter 200/635 training loss = 1.164, time = 0.0722, time for 50 iter: 318.3708
Iter 250/635 training loss = 1.143, time = 0.0738, time for 50 iter: 340.7311
Iter 300/635 training loss = 1.178, time = 0.0784, time for 50 iter: 258.5262
Iter 350/635 training loss = 1.116, time = 0.0731, time for 50 iter: 344.9982
Iter 400/635 training loss = 1.146, time = 0.0727, time for 50 iter: 263.3148
Iter 450/635 training loss = 1.121, time = 0.0724, time for 50 iter: 315.1218
Iter 500/635 training loss = 1.135, time = 0.0753, time for 50 iter: 343.4011
Iter 550/635 training loss = 1.119, time = 0.0766, time for 50 iter: 254.3075
Iter 600/635 training loss = 1.143, time = 0.0760, time for 50 iter: 346.7241
------------------------------------
epoch 2 total training loss = 1.151
Total epoch time = 3855.11
------------------------------------
Iter 50 test loss = 1.120 , time = 0.04
Iter 100 test loss = 1.147 , time = 0.04
Iter 150 test loss = 1.064 , time = 0.03
Iter 200 test loss = 1.137 , time = 0.04
Iter 250 test loss = 1.084 , time = 0.04
------------------------------------
total test loss = 1.105
total traslation error: 140.7748006498517 cm
total rotation error: 4.911378126684146
------------------------------------
Model saved as ./checkpoints_test/kitti/00/checkpoint_r10.00_t2.00_e2_1.105.tar
This is 3-th epoch
Iter 50/635 training loss = 1.181, time = 0.0715, time for 50 iter: 289.5326
Iter 100/635 training loss = 1.091, time = 0.0737, time for 50 iter: 288.8034
Iter 150/635 training loss = 1.143, time = 0.0730, time for 50 iter: 324.5081
Iter 200/635 training loss = 1.085, time = 0.0766, time for 50 iter: 317.5563
Iter 250/635 training loss = 1.099, time = 0.0729, time for 50 iter: 275.9514
Iter 300/635 training loss = 1.097, time = 0.0749, time for 50 iter: 307.7415
Iter 350/635 training loss = 1.094, time = 0.0758, time for 50 iter: 312.6398
Iter 400/635 training loss = 1.144, time = 0.0748, time for 50 iter: 297.0653
Iter 450/635 training loss = 1.081, time = 0.0725, time for 50 iter: 333.8643
Iter 500/635 training loss = 1.062, time = 0.0727, time for 50 iter: 278.8724
Iter 550/635 training loss = 1.088, time = 0.0725, time for 50 iter: 272.1415
Iter 600/635 training loss = 1.065, time = 0.0736, time for 50 iter: 361.5141
------------------------------------
epoch 3 total training loss = 1.101
Total epoch time = 3902.65
------------------------------------
Iter 50 test loss = 1.094 , time = 0.04
Iter 100 test loss = 1.117 , time = 0.04
Iter 150 test loss = 1.054 , time = 0.03
Iter 200 test loss = 1.107 , time = 0.04
Iter 250 test loss = 1.032 , time = 0.04
------------------------------------
total test loss = 1.076
total traslation error: 138.4965674881892 cm
total rotation error: 4.714873032274816
------------------------------------
Model saved as ./checkpoints_test/kitti/00/checkpoint_r10.00_t2.00_e3_1.076.tar
This is 4-th epoch
Iter 50/635 training loss = 1.122, time = 0.0755, time for 50 iter: 310.9682
Iter 100/635 training loss = 1.058, time = 0.0725, time for 50 iter: 248.3214
Iter 150/635 training loss = 1.073, time = 0.0731, time for 50 iter: 363.2740
Iter 200/635 training loss = 1.064, time = 0.0738, time for 50 iter: 291.4179
Iter 250/635 training loss = 1.084, time = 0.0719, time for 50 iter: 245.9483
Iter 300/635 training loss = 1.082, time = 0.0735, time for 50 iter: 339.7968
Iter 350/635 training loss = 1.055, time = 0.0756, time for 50 iter: 351.4101
Iter 400/635 training loss = 1.037, time = 0.0772, time for 50 iter: 311.4493
Iter 450/635 training loss = 1.062, time = 0.0739, time for 50 iter: 267.0951
Iter 500/635 training loss = 1.062, time = 0.0718, time for 50 iter: 400.9088
Iter 550/635 training loss = 1.049, time = 0.0743, time for 50 iter: 296.5033
Iter 600/635 training loss = 1.082, time = 0.0737, time for 50 iter: 302.4623
------------------------------------
epoch 4 total training loss = 1.066
Total epoch time = 3952.74
------------------------------------
Iter 50 test loss = 1.052 , time = 0.04
Iter 100 test loss = 1.068 , time = 0.04
Iter 150 test loss = 0.994 , time = 0.03
Iter 200 test loss = 1.065 , time = 0.04
Iter 250 test loss = 1.030 , time = 0.04
------------------------------------
total test loss = 1.038
total traslation error: 135.79208279265046 cm
total rotation error: 4.413677284040789
------------------------------------
Model saved as ./checkpoints_test/kitti/00/checkpoint_r10.00_t2.00_e4_1.038.tar
This is 5-th epoch
Iter 50/635 training loss = 1.050, time = 0.0728, time for 50 iter: 295.5598
Iter 100/635 training loss = 1.036, time = 0.0711, time for 50 iter: 327.4687
Iter 150/635 training loss = 1.066, time = 0.0721, time for 50 iter: 292.0858
Iter 200/635 training loss = 1.096, time = 0.0712, time for 50 iter: 354.7110
Iter 250/635 training loss = 1.053, time = 0.0750, time for 50 iter: 286.8333
Iter 300/635 training loss = 1.057, time = 0.0731, time for 50 iter: 262.9070
Iter 350/635 training loss = 1.041, time = 0.0727, time for 50 iter: 302.6656
Iter 400/635 training loss = 1.078, time = 0.0723, time for 50 iter: 384.0129
Iter 450/635 training loss = 1.072, time = 0.0760, time for 50 iter: 303.7827
Iter 500/635 training loss = 1.015, time = 0.0752, time for 50 iter: 308.0518
Iter 550/635 training loss = 1.037, time = 0.0755, time for 50 iter: 361.6137
Iter 600/635 training loss = 1.035, time = 0.0709, time for 50 iter: 272.0835
------------------------------------
epoch 5 total training loss = 1.049
Total epoch time = 3949.38
------------------------------------
Iter 50 test loss = 1.032 , time = 0.04
Iter 100 test loss = 1.049 , time = 0.04
Iter 150 test loss = 0.943 , time = 0.03
Iter 200 test loss = 1.030 , time = 0.04
Iter 250 test loss = 0.984 , time = 0.04
------------------------------------
total test loss = 1.004
total traslation error: 133.24895698565845 cm
total rotation error: 4.24723274333444
------------------------------------
Model saved as ./checkpoints_test/kitti/00/checkpoint_r10.00_t2.00_e5_1.004.tar
This is 6-th epoch
Iter 50/635 training loss = 1.082, time = 0.0736, time for 50 iter: 338.1076
Iter 100/635 training loss = 1.030, time = 0.0744, time for 50 iter: 352.2957
Iter 150/635 training loss = 1.023, time = 0.0748, time for 50 iter: 336.1473
Iter 200/635 training loss = 1.063, time = 0.0746, time for 50 iter: 260.8994
Iter 250/635 training loss = 1.060, time = 0.0730, time for 50 iter: 265.2233
Iter 300/635 training loss = 1.034, time = 0.0744, time for 50 iter: 259.0690
Iter 350/635 training loss = 1.043, time = 0.0727, time for 50 iter: 392.6869
Iter 400/635 training loss = 1.040, time = 0.0739, time for 50 iter: 374.1618
Iter 450/635 training loss = 1.015, time = 0.0743, time for 50 iter: 316.6562
Iter 500/635 training loss = 1.001, time = 0.0739, time for 50 iter: 301.2430
Iter 550/635 training loss = 1.013, time = 0.0739, time for 50 iter: 410.5472
Iter 600/635 training loss = 1.003, time = 0.0739, time for 50 iter: 272.0377
------------------------------------
epoch 6 total training loss = 1.032
Total epoch time = 4051.83
------------------------------------
Iter 50 test loss = 1.002 , time = 0.04
Iter 100 test loss = 1.038 , time = 0.04
Iter 150 test loss = 0.949 , time = 0.03
Iter 200 test loss = 1.032 , time = 0.04
Iter 250 test loss = 0.935 , time = 0.04
------------------------------------
total test loss = 0.987
total traslation error: 131.88984310214832 cm
total rotation error: 4.124274456298869
------------------------------------
Model saved as ./checkpoints_test/kitti/00/checkpoint_r10.00_t2.00_e6_0.987.tar
This is 7-th epoch
Iter 50/635 training loss = 1.031, time = 0.0736, time for 50 iter: 353.3045
Iter 100/635 training loss = 1.053, time = 0.0753, time for 50 iter: 339.8918
Iter 150/635 training loss = 0.971, time = 0.0730, time for 50 iter: 250.2285
Iter 200/635 training loss = 1.018, time = 0.0724, time for 50 iter: 363.4978
Iter 250/635 training loss = 1.004, time = 0.0732, time for 50 iter: 315.8184
Iter 300/635 training loss = 1.001, time = 0.0726, time for 50 iter: 369.7139
Iter 350/635 training loss = 0.987, time = 0.0737, time for 50 iter: 281.7729
Iter 400/635 training loss = 0.998, time = 0.0779, time for 50 iter: 285.4415
Iter 450/635 training loss = 1.014, time = 0.0741, time for 50 iter: 289.5426
Iter 500/635 training loss = 1.007, time = 0.0755, time for 50 iter: 297.8867
Iter 550/635 training loss = 1.021, time = 0.0727, time for 50 iter: 366.0918
Iter 600/635 training loss = 0.964, time = 0.0695, time for 50 iter: 423.0577
------------------------------------
epoch 7 total training loss = 1.003
Total epoch time = 4162.31
------------------------------------
Iter 50 test loss = 0.973 , time = 0.04
Iter 100 test loss = 1.014 , time = 0.04
Iter 150 test loss = 0.937 , time = 0.03
Iter 200 test loss = 1.001 , time = 0.04
Iter 250 test loss = 0.917 , time = 0.04
------------------------------------
total test loss = 0.965
total traslation error: 130.60146180072877 cm
total rotation error: 3.85800358567094
------------------------------------
Model saved as ./checkpoints_test/kitti/00/checkpoint_r10.00_t2.00_e7_0.965.tar
This is 8-th epoch
Iter 50/635 training loss = 0.993, time = 0.0733, time for 50 iter: 259.8143
Iter 100/635 training loss = 0.997, time = 0.0729, time for 50 iter: 359.5763
Iter 150/635 training loss = 1.018, time = 0.0723, time for 50 iter: 329.6942
Iter 200/635 training loss = 1.031, time = 0.0733, time for 50 iter: 316.7050
Iter 250/635 training loss = 0.955, time = 0.0720, time for 50 iter: 284.7373
Iter 300/635 training loss = 0.952, time = 0.0773, time for 50 iter: 316.8071
Iter 350/635 training loss = 1.025, time = 0.0737, time for 50 iter: 387.6104
Iter 400/635 training loss = 0.992, time = 0.0762, time for 50 iter: 309.1690
Iter 450/635 training loss = 1.028, time = 0.0719, time for 50 iter: 354.6541
Iter 500/635 training loss = 1.003, time = 0.0752, time for 50 iter: 273.4687
Iter 550/635 training loss = 0.985, time = 0.0725, time for 50 iter: 316.7058
Iter 600/635 training loss = 0.958, time = 0.0727, time for 50 iter: 387.9216
------------------------------------
epoch 8 total training loss = 0.992
Total epoch time = 4122.14
------------------------------------
Iter 50 test loss = 0.951 , time = 0.04
Iter 100 test loss = 0.971 , time = 0.04
Iter 150 test loss = 0.912 , time = 0.03
Iter 200 test loss = 0.979 , time = 0.04
Iter 250 test loss = 0.897 , time = 0.04
------------------------------------
total test loss = 0.939
total traslation error: 127.96906895271037 cm
total rotation error: 3.8458820936097577
------------------------------------
Model saved as ./checkpoints_test/kitti/00/checkpoint_r10.00_t2.00_e8_0.939.tar
This is 9-th epoch
Iter 50/635 training loss = 1.004, time = 0.0744, time for 50 iter: 340.0817
Iter 100/635 training loss = 0.952, time = 0.0738, time for 50 iter: 293.7625
Iter 150/635 training loss = 0.978, time = 0.0748, time for 50 iter: 257.0435
Iter 200/635 training loss = 0.953, time = 0.0734, time for 50 iter: 353.8604
Iter 250/635 training loss = 0.965, time = 0.0737, time for 50 iter: 293.9748
Iter 300/635 training loss = 0.987, time = 0.0727, time for 50 iter: 283.6203
Iter 350/635 training loss = 0.975, time = 0.0712, time for 50 iter: 371.2400
Iter 400/635 training loss = 0.942, time = 0.0752, time for 50 iter: 317.3970
Iter 450/635 training loss = 0.943, time = 0.0741, time for 50 iter: 358.0177
Iter 500/635 training loss = 0.974, time = 0.0754, time for 50 iter: 317.8578
Iter 550/635 training loss = 1.003, time = 0.0734, time for 50 iter: 412.3528
Iter 600/635 training loss = 0.952, time = 0.0725, time for 50 iter: 332.0812
------------------------------------
epoch 9 total training loss = 0.966
Total epoch time = 4116.74
------------------------------------
Iter 50 test loss = 0.923 , time = 0.04
Iter 100 test loss = 0.962 , time = 0.04
Iter 150 test loss = 0.891 , time = 0.03
Iter 200 test loss = 0.963 , time = 0.04
Iter 250 test loss = 0.893 , time = 0.04
------------------------------------
total test loss = 0.923
total traslation error: 127.06991360077798 cm
total rotation error: 3.5607611847931895
------------------------------------
Model saved as ./checkpoints_test/kitti/00/checkpoint_r10.00_t2.00_e9_0.923.tar
This is 10-th epoch
Iter 50/635 training loss = 0.965, time = 0.0747, time for 50 iter: 304.5265
Iter 100/635 training loss = 0.952, time = 0.0736, time for 50 iter: 346.1886
Iter 150/635 training loss = 0.937, time = 0.0754, time for 50 iter: 294.3118
Iter 200/635 training loss = 0.921, time = 0.0734, time for 50 iter: 356.4632
Iter 250/635 training loss = 0.944, time = 0.0736, time for 50 iter: 383.8253
Iter 300/635 training loss = 0.943, time = 0.0728, time for 50 iter: 318.4806
Iter 350/635 training loss = 0.918, time = 0.0745, time for 50 iter: 262.8976
Iter 400/635 training loss = 0.966, time = 0.0720, time for 50 iter: 422.2468
Iter 450/635 training loss = 0.962, time = 0.0731, time for 50 iter: 291.9566
Iter 500/635 training loss = 0.934, time = 0.0732, time for 50 iter: 276.0439
Iter 550/635 training loss = 0.951, time = 0.0717, time for 50 iter: 337.6101
Iter 600/635 training loss = 0.940, time = 0.0761, time for 50 iter: 348.1181
------------------------------------
epoch 10 total training loss = 0.943
Total epoch time = 4203.98
------------------------------------
Iter 50 test loss = 0.986 , time = 0.04
Iter 100 test loss = 1.011 , time = 0.04
Iter 150 test loss = 0.932 , time = 0.03
Iter 200 test loss = 1.005 , time = 0.04
Iter 250 test loss = 0.885 , time = 0.04
------------------------------------
total test loss = 0.960
total traslation error: 130.20398035240552 cm
total rotation error: 3.537335820881655
------------------------------------
This is 11-th epoch
Iter 50/635 training loss = 0.939, time = 0.0748, time for 50 iter: 301.1975
Iter 100/635 training loss = 0.907, time = 0.0732, time for 50 iter: 307.3592
Iter 150/635 training loss = 0.956, time = 0.0751, time for 50 iter: 261.7224
Iter 200/635 training loss = 0.941, time = 0.0735, time for 50 iter: 288.3635
Iter 250/635 training loss = 0.978, time = 0.0727, time for 50 iter: 383.1823
Iter 300/635 training loss = 0.939, time = 0.0741, time for 50 iter: 353.6565
Iter 350/635 training loss = 0.946, time = 0.0738, time for 50 iter: 352.7587
Iter 400/635 training loss = 0.911, time = 0.0754, time for 50 iter: 371.1460
Iter 450/635 training loss = 0.956, time = 0.0735, time for 50 iter: 292.7461
Iter 500/635 training loss = 0.956, time = 0.0732, time for 50 iter: 396.7501
Iter 550/635 training loss = 0.906, time = 0.0729, time for 50 iter: 261.7567
Iter 600/635 training loss = 0.947, time = 0.0726, time for 50 iter: 296.5251
------------------------------------
epoch 11 total training loss = 0.937
Total epoch time = 4059.87
------------------------------------
Iter 50 test loss = 0.934 , time = 0.04
Iter 100 test loss = 0.977 , time = 0.04
Iter 150 test loss = 0.894 , time = 0.03
Iter 200 test loss = 0.957 , time = 0.04
Iter 250 test loss = 0.856 , time = 0.04
------------------------------------
total test loss = 0.920
total traslation error: 126.91555597288077 cm
total rotation error: 3.613890563252476
------------------------------------
Model saved as ./checkpoints_test/kitti/00/checkpoint_r10.00_t2.00_e11_0.920.tar
This is 12-th epoch
Iter 50/635 training loss = 0.946, time = 0.0732, time for 50 iter: 332.6410
Iter 100/635 training loss = 0.974, time = 0.0730, time for 50 iter: 326.8465
Iter 150/635 training loss = 0.902, time = 0.0715, time for 50 iter: 261.8545
Iter 200/635 training loss = 0.915, time = 0.0729, time for 50 iter: 372.5113
Iter 250/635 training loss = 0.931, time = 0.0739, time for 50 iter: 313.9231
Iter 300/635 training loss = 0.957, time = 0.0721, time for 50 iter: 290.7245
Iter 350/635 training loss = 0.913, time = 0.0741, time for 50 iter: 288.3581
Iter 400/635 training loss = 0.894, time = 0.0736, time for 50 iter: 359.6813
Iter 450/635 training loss = 0.922, time = 0.0748, time for 50 iter: 364.6219
Iter 500/635 training loss = 0.886, time = 0.0767, time for 50 iter: 401.2071
Iter 550/635 training loss = 0.904, time = 0.0761, time for 50 iter: 340.4781
Iter 600/635 training loss = 0.908, time = 0.0759, time for 50 iter: 306.1776
------------------------------------
epoch 12 total training loss = 0.920
Total epoch time = 4135.35
------------------------------------
Iter 50 test loss = 0.905 , time = 0.04
Iter 100 test loss = 0.968 , time = 0.04
Iter 150 test loss = 0.895 , time = 0.03
Iter 200 test loss = 0.940 , time = 0.04
Iter 250 test loss = 0.872 , time = 0.04
------------------------------------
total test loss = 0.912
total traslation error: 126.63445608092415 cm
total rotation error: 3.4531537727804547
------------------------------------
Model saved as ./checkpoints_test/kitti/00/checkpoint_r10.00_t2.00_e12_0.912.tar
This is 13-th epoch
Iter 50/635 training loss = 0.941, time = 0.0735, time for 50 iter: 301.9160
Iter 100/635 training loss = 0.873, time = 0.0740, time for 50 iter: 317.7753
Iter 150/635 training loss = 0.915, time = 0.0711, time for 50 iter: 318.4450
Iter 200/635 training loss = 0.900, time = 0.0716, time for 50 iter: 331.6335
Iter 250/635 training loss = 0.906, time = 0.0734, time for 50 iter: 298.9106
Iter 300/635 training loss = 0.899, time = 0.0727, time for 50 iter: 337.4023
Iter 350/635 training loss = 0.891, time = 0.0755, time for 50 iter: 328.9325
Iter 400/635 training loss = 0.917, time = 0.0711, time for 50 iter: 336.2254
Iter 450/635 training loss = 0.914, time = 0.0768, time for 50 iter: 388.5964
Iter 500/635 training loss = 0.875, time = 0.0720, time for 50 iter: 322.5730
Iter 550/635 training loss = 0.891, time = 0.0758, time for 50 iter: 330.8902
Iter 600/635 training loss = 0.894, time = 0.0749, time for 50 iter: 306.7517
------------------------------------
epoch 13 total training loss = 0.900
Total epoch time = 4200.49
------------------------------------
Iter 50 test loss = 0.886 , time = 0.04
Iter 100 test loss = 0.933 , time = 0.04
Iter 150 test loss = 0.854 , time = 0.03
Iter 200 test loss = 0.910 , time = 0.04
Iter 250 test loss = 0.823 , time = 0.04
------------------------------------
total test loss = 0.878
total traslation error: 123.87392413608305 cm
total rotation error: 3.105567421374461
------------------------------------
Model saved as ./checkpoints_test/kitti/00/checkpoint_r10.00_t2.00_e13_0.878.tar
This is 14-th epoch
Iter 50/635 training loss = 0.905, time = 0.0738, time for 50 iter: 269.5853
Iter 100/635 training loss = 0.892, time = 0.0731, time for 50 iter: 361.2317
Iter 150/635 training loss = 0.877, time = 0.0724, time for 50 iter: 285.9246
Iter 200/635 training loss = 0.898, time = 0.0745, time for 50 iter: 276.4164
Iter 250/635 training loss = 0.873, time = 0.0726, time for 50 iter: 266.2546
Iter 300/635 training loss = 0.881, time = 0.0741, time for 50 iter: 380.5292
Iter 350/635 training loss = 0.874, time = 0.0755, time for 50 iter: 397.6730
Iter 400/635 training loss = 0.926, time = 0.0739, time for 50 iter: 327.3861
Iter 450/635 training loss = 0.889, time = 0.0731, time for 50 iter: 339.2503
Iter 500/635 training loss = 0.905, time = 0.0765, time for 50 iter: 461.0402
Iter 550/635 training loss = 0.888, time = 0.0736, time for 50 iter: 364.6019
Iter 600/635 training loss = 0.923, time = 0.0741, time for 50 iter: 298.1588
------------------------------------
epoch 14 total training loss = 0.893
Total epoch time = 4251.32
------------------------------------
Iter 50 test loss = 0.863 , time = 0.04
Iter 100 test loss = 0.906 , time = 0.04
Iter 150 test loss = 0.864 , time = 0.03
Iter 200 test loss = 0.905 , time = 0.04
Iter 250 test loss = 0.842 , time = 0.04
------------------------------------
total test loss = 0.872
total traslation error: 123.1373923275865 cm
total rotation error: 3.3112014927178377
------------------------------------
Model saved as ./checkpoints_test/kitti/00/checkpoint_r10.00_t2.00_e14_0.872.tar
This is 15-th epoch
Iter 50/635 training loss = 0.899, time = 0.0743, time for 50 iter: 388.6831
Iter 100/635 training loss = 0.894, time = 0.0747, time for 50 iter: 341.4796
Iter 150/635 training loss = 0.890, time = 0.0729, time for 50 iter: 295.8202
Iter 200/635 training loss = 0.849, time = 0.0756, time for 50 iter: 375.6301
Iter 250/635 training loss = 0.931, time = 0.0716, time for 50 iter: 318.9890
Iter 300/635 training loss = 0.846, time = 0.0758, time for 50 iter: 328.3812
Iter 350/635 training loss = 0.847, time = 0.0721, time for 50 iter: 341.5766
Iter 400/635 training loss = 0.862, time = 0.0750, time for 50 iter: 282.4001
Iter 450/635 training loss = 0.873, time = 0.0720, time for 50 iter: 436.1640
Iter 500/635 training loss = 0.862, time = 0.0755, time for 50 iter: 347.5154
Iter 550/635 training loss = 0.809, time = 0.0739, time for 50 iter: 291.5276
Iter 600/635 training loss = 0.892, time = 0.0770, time for 50 iter: 400.9788
------------------------------------
epoch 15 total training loss = 0.870
Total epoch time = 4455.63
------------------------------------
Iter 50 test loss = 0.821 , time = 0.04
Iter 100 test loss = 0.912 , time = 0.04
Iter 150 test loss = 0.846 , time = 0.03
Iter 200 test loss = 0.886 , time = 0.04
Iter 250 test loss = 0.820 , time = 0.04
------------------------------------
total test loss = 0.853
total traslation error: 121.22802784106354 cm
total rotation error: 3.2351254389900856
------------------------------------
Model saved as ./checkpoints_test/kitti/00/checkpoint_r10.00_t2.00_e15_0.853.tar
This is 16-th epoch
Iter 50/635 training loss = 0.877, time = 0.0748, time for 50 iter: 316.1571
Iter 100/635 training loss = 0.878, time = 0.0717, time for 50 iter: 335.0402
Iter 150/635 training loss = 0.837, time = 0.0728, time for 50 iter: 298.0867
Iter 200/635 training loss = 0.893, time = 0.0734, time for 50 iter: 319.1361
Iter 250/635 training loss = 0.872, time = 0.0727, time for 50 iter: 380.1831
Iter 300/635 training loss = 0.828, time = 0.0741, time for 50 iter: 407.5455
Iter 350/635 training loss = 0.845, time = 0.0738, time for 50 iter: 363.5671
Iter 400/635 training loss = 0.884, time = 0.0740, time for 50 iter: 334.8532
Iter 450/635 training loss = 0.901, time = 0.0735, time for 50 iter: 376.8606
Iter 500/635 training loss = 0.841, time = 0.0726, time for 50 iter: 271.0091
Iter 550/635 training loss = 0.818, time = 0.0731, time for 50 iter: 369.7441
Iter 600/635 training loss = 0.846, time = 0.0734, time for 50 iter: 417.8860
------------------------------------
epoch 16 total training loss = 0.856
Total epoch time = 4391.95
------------------------------------
Iter 50 test loss = 0.823 , time = 0.04
Iter 100 test loss = 0.888 , time = 0.04
Iter 150 test loss = 0.819 , time = 0.03
Iter 200 test loss = 0.860 , time = 0.04
Iter 250 test loss = 0.840 , time = 0.04
------------------------------------
total test loss = 0.842
total traslation error: 120.41016814520222 cm
total rotation error: 3.2802598552540045
------------------------------------
Model saved as ./checkpoints_test/kitti/00/checkpoint_r10.00_t2.00_e16_0.842.tar
This is 17-th epoch
Iter 50/635 training loss = 0.876, time = 0.0724, time for 50 iter: 315.5723
Iter 100/635 training loss = 0.881, time = 0.0725, time for 50 iter: 376.0024
Iter 150/635 training loss = 0.822, time = 0.0737, time for 50 iter: 300.1332
Iter 200/635 training loss = 0.872, time = 0.0764, time for 50 iter: 314.4795
Iter 250/635 training loss = 0.846, time = 0.0728, time for 50 iter: 352.3553
Iter 300/635 training loss = 0.848, time = 0.0736, time for 50 iter: 318.9699
Iter 350/635 training loss = 0.857, time = 0.0728, time for 50 iter: 358.7462
Iter 400/635 training loss = 0.870, time = 0.0729, time for 50 iter: 423.2470
Iter 450/635 training loss = 0.858, time = 0.0728, time for 50 iter: 311.2700
Iter 500/635 training loss = 0.800, time = 0.0744, time for 50 iter: 329.0752
Iter 550/635 training loss = 0.862, time = 0.0743, time for 50 iter: 407.5278
Iter 600/635 training loss = 0.836, time = 0.0756, time for 50 iter: 345.9436
------------------------------------
epoch 17 total training loss = 0.849
Total epoch time = 4348.92
------------------------------------
Iter 50 test loss = 0.779 , time = 0.04
Iter 100 test loss = 0.853 , time = 0.04
Iter 150 test loss = 0.802 , time = 0.03
Iter 200 test loss = 0.854 , time = 0.04
Iter 250 test loss = 0.792 , time = 0.04
------------------------------------
total test loss = 0.812
total traslation error: 117.81383327071663 cm
total rotation error: 3.0647584505213485
------------------------------------
Model saved as ./checkpoints_test/kitti/00/checkpoint_r10.00_t2.00_e17_0.812.tar
This is 18-th epoch
Iter 50/635 training loss = 0.850, time = 0.0725, time for 50 iter: 331.3364
Iter 100/635 training loss = 0.845, time = 0.0736, time for 50 iter: 291.3934
Iter 150/635 training loss = 0.814, time = 0.0746, time for 50 iter: 303.5290
Iter 200/635 training loss = 0.838, time = 0.0718, time for 50 iter: 344.8309
Iter 250/635 training loss = 0.810, time = 0.0716, time for 50 iter: 276.1134
Iter 300/635 training loss = 0.865, time = 0.0717, time for 50 iter: 402.3731
Iter 350/635 training loss = 0.829, time = 0.0713, time for 50 iter: 395.1760
Iter 400/635 training loss = 0.839, time = 0.0713, time for 50 iter: 320.9237
Iter 450/635 training loss = 0.848, time = 0.0765, time for 50 iter: 416.4495
Iter 500/635 training loss = 0.826, time = 0.0735, time for 50 iter: 271.5396
Iter 550/635 training loss = 0.796, time = 0.0727, time for 50 iter: 353.3586
Iter 600/635 training loss = 0.833, time = 0.0775, time for 50 iter: 429.2874
------------------------------------
epoch 18 total training loss = 0.830
Total epoch time = 4345.52
------------------------------------
Iter 50 test loss = 0.763 , time = 0.04
Iter 100 test loss = 0.808 , time = 0.04
Iter 150 test loss = 0.788 , time = 0.03
Iter 200 test loss = 0.832 , time = 0.04
Iter 250 test loss = 0.782 , time = 0.04
------------------------------------
total test loss = 0.791
total traslation error: 115.80345975384002 cm
total rotation error: 3.0636995032452665
------------------------------------
Model saved as ./checkpoints_test/kitti/00/checkpoint_r10.00_t2.00_e18_0.791.tar
This is 19-th epoch
Iter 50/635 training loss = 0.827, time = 0.0760, time for 50 iter: 301.0759
Iter 100/635 training loss = 0.793, time = 0.0736, time for 50 iter: 363.2774
Iter 150/635 training loss = 0.797, time = 0.0758, time for 50 iter: 376.7067
Iter 200/635 training loss = 0.777, time = 0.0724, time for 50 iter: 302.1870
Iter 250/635 training loss = 0.861, time = 0.0731, time for 50 iter: 303.1692
Iter 300/635 training loss = 0.847, time = 0.0735, time for 50 iter: 401.4745
Iter 350/635 training loss = 0.793, time = 0.0718, time for 50 iter: 314.3778
Iter 400/635 training loss = 0.782, time = 0.0696, time for 50 iter: 314.2225
Iter 450/635 training loss = 0.804, time = 0.0719, time for 50 iter: 432.1173
Iter 500/635 training loss = 0.748, time = 0.0719, time for 50 iter: 429.6998
Iter 550/635 training loss = 0.774, time = 0.0701, time for 50 iter: 297.6766
Iter 600/635 training loss = 0.812, time = 0.0709, time for 50 iter: 311.4359
------------------------------------
epoch 19 total training loss = 0.801
Total epoch time = 4437.29
------------------------------------
Iter 50 test loss = 0.766 , time = 0.04
Iter 100 test loss = 0.819 , time = 0.04
Iter 150 test loss = 0.783 , time = 0.03
Iter 200 test loss = 0.820 , time = 0.04
Iter 250 test loss = 0.789 , time = 0.04
------------------------------------
total test loss = 0.791
total traslation error: 115.57387325149936 cm
total rotation error: 3.0772207644877785
------------------------------------
This is 20-th epoch
Iter 50/635 training loss = 0.815, time = 0.0746, time for 50 iter: 341.9144
Iter 100/635 training loss = 0.840, time = 0.0746, time for 50 iter: 332.6438
Iter 150/635 training loss = 0.780, time = 0.0708, time for 50 iter: 345.2297
Iter 200/635 training loss = 0.784, time = 0.0742, time for 50 iter: 303.3269
Iter 250/635 training loss = 0.769, time = 0.0724, time for 50 iter: 378.6234
Iter 300/635 training loss = 0.777, time = 0.0739, time for 50 iter: 352.8939
Iter 350/635 training loss = 0.831, time = 0.0758, time for 50 iter: 351.4616
Iter 400/635 training loss = 0.777, time = 0.0743, time for 50 iter: 410.2307
Iter 450/635 training loss = 0.774, time = 0.0736, time for 50 iter: 321.8935
Iter 500/635 training loss = 0.785, time = 0.0716, time for 50 iter: 336.7682
Iter 550/635 training loss = 0.824, time = 0.0734, time for 50 iter: 403.0857
Iter 600/635 training loss = 0.791, time = 0.0755, time for 50 iter: 294.5171
------------------------------------
epoch 20 total training loss = 0.791
Total epoch time = 4376.77
------------------------------------
Iter 50 test loss = 0.719 , time = 0.04
Iter 100 test loss = 0.787 , time = 0.04
Iter 150 test loss = 0.754 , time = 0.03
Iter 200 test loss = 0.772 , time = 0.04
Iter 250 test loss = 0.781 , time = 0.04
------------------------------------
total test loss = 0.759
total traslation error: 112.41554187336989 cm
total rotation error: 3.0735058186994566
------------------------------------
Model saved as ./checkpoints_test/kitti/00/checkpoint_r10.00_t2.00_e20_0.759.tar
This is 21-th epoch
Iter 50/635 training loss = 0.760, time = 0.0750, time for 50 iter: 311.9016
Iter 100/635 training loss = 0.775, time = 0.0754, time for 50 iter: 351.2190
Iter 150/635 training loss = 0.768, time = 0.0755, time for 50 iter: 351.6902
Iter 200/635 training loss = 0.783, time = 0.0738, time for 50 iter: 273.3340
Iter 250/635 training loss = 0.754, time = 0.0708, time for 50 iter: 336.6593
Iter 300/635 training loss = 0.799, time = 0.0727, time for 50 iter: 323.9972
Iter 350/635 training loss = 0.789, time = 0.0736, time for 50 iter: 306.5848
Iter 400/635 training loss = 0.790, time = 0.0769, time for 50 iter: 372.6185
Iter 450/635 training loss = 0.763, time = 0.0743, time for 50 iter: 411.7645
Iter 500/635 training loss = 0.778, time = 0.0731, time for 50 iter: 433.0950
Iter 550/635 training loss = 0.724, time = 0.0725, time for 50 iter: 330.9306
Iter 600/635 training loss = 0.770, time = 0.0719, time for 50 iter: 349.3260
------------------------------------
epoch 21 total training loss = 0.769
Total epoch time = 4336.51
------------------------------------
Iter 50 test loss = 0.760 , time = 0.04
Iter 100 test loss = 0.797 , time = 0.04
Iter 150 test loss = 0.818 , time = 0.03
Iter 200 test loss = 0.819 , time = 0.04
Iter 250 test loss = 0.765 , time = 0.04
------------------------------------
total test loss = 0.788
total traslation error: 115.13548172961455 cm
total rotation error: 3.1752445409539987
------------------------------------
This is 22-th epoch
Iter 50/635 training loss = 0.795, time = 0.0716, time for 50 iter: 357.1944
Iter 100/635 training loss = 0.730, time = 0.0740, time for 50 iter: 299.9213
Iter 150/635 training loss = 0.724, time = 0.0732, time for 50 iter: 294.0606
Iter 200/635 training loss = 0.743, time = 0.0718, time for 50 iter: 369.6555
Iter 250/635 training loss = 0.753, time = 0.0765, time for 50 iter: 400.2190
Iter 300/635 training loss = 0.724, time = 0.0725, time for 50 iter: 323.7652
Iter 350/635 training loss = 0.758, time = 0.0742, time for 50 iter: 288.3412
Iter 400/635 training loss = 0.748, time = 0.0711, time for 50 iter: 398.3964
Iter 450/635 training loss = 0.740, time = 0.0728, time for 50 iter: 280.5866
Iter 500/635 training loss = 0.735, time = 0.0726, time for 50 iter: 404.2847
Iter 550/635 training loss = 0.744, time = 0.0737, time for 50 iter: 380.4961
Iter 600/635 training loss = 0.742, time = 0.0732, time for 50 iter: 378.5816
------------------------------------
epoch 22 total training loss = 0.743
Total epoch time = 4355.94
------------------------------------
Iter 50 test loss = 0.663 , time = 0.04
Iter 100 test loss = 0.718 , time = 0.04
Iter 150 test loss = 0.709 , time = 0.03
Iter 200 test loss = 0.728 , time = 0.04
Iter 250 test loss = 0.728 , time = 0.04
------------------------------------
total test loss = 0.706
total traslation error: 107.5208139157038 cm
total rotation error: 2.990135844545043
------------------------------------
Model saved as ./checkpoints_test/kitti/00/checkpoint_r10.00_t2.00_e22_0.706.tar
This is 23-th epoch
Iter 50/635 training loss = 0.739, time = 0.0736, time for 50 iter: 353.0287
Iter 100/635 training loss = 0.730, time = 0.0740, time for 50 iter: 348.3933
Iter 150/635 training loss = 0.694, time = 0.0736, time for 50 iter: 317.9983
Iter 200/635 training loss = 0.732, time = 0.0737, time for 50 iter: 338.3866
Iter 250/635 training loss = 0.695, time = 0.0735, time for 50 iter: 299.0715
Iter 300/635 training loss = 0.708, time = 0.0747, time for 50 iter: 393.9256
Iter 350/635 training loss = 0.734, time = 0.0742, time for 50 iter: 303.8696
Iter 400/635 training loss = 0.723, time = 0.0746, time for 50 iter: 282.0472
Iter 450/635 training loss = 0.702, time = 0.0747, time for 50 iter: 398.8101
Iter 500/635 training loss = 0.705, time = 0.0745, time for 50 iter: 391.9902
Iter 550/635 training loss = 0.752, time = 0.0731, time for 50 iter: 278.7138
Iter 600/635 training loss = 0.688, time = 0.0719, time for 50 iter: 392.2981
------------------------------------
epoch 23 total training loss = 0.714
Total epoch time = 4392.46
------------------------------------
Iter 50 test loss = 0.672 , time = 0.04
Iter 100 test loss = 0.726 , time = 0.04
Iter 150 test loss = 0.725 , time = 0.03
Iter 200 test loss = 0.760 , time = 0.04
Iter 250 test loss = 0.757 , time = 0.04
------------------------------------
total test loss = 0.725
total traslation error: 108.64325103054118 cm
total rotation error: 3.0777210623281848
------------------------------------
This is 24-th epoch
Iter 50/635 training loss = 0.713, time = 0.0737, time for 50 iter: 353.2465
Iter 100/635 training loss = 0.678, time = 0.0738, time for 50 iter: 331.9799
Iter 150/635 training loss = 0.694, time = 0.0755, time for 50 iter: 289.5196
Iter 200/635 training loss = 0.717, time = 0.0770, time for 50 iter: 366.6434
Iter 250/635 training loss = 0.699, time = 0.0727, time for 50 iter: 352.5187
Iter 300/635 training loss = 0.661, time = 0.0720, time for 50 iter: 328.4432
Iter 350/635 training loss = 0.690, time = 0.0729, time for 50 iter: 394.7669
Iter 400/635 training loss = 0.701, time = 0.0732, time for 50 iter: 336.1667
Iter 450/635 training loss = 0.684, time = 0.0737, time for 50 iter: 342.3144
Iter 500/635 training loss = 0.686, time = 0.0756, time for 50 iter: 387.9000
Iter 550/635 training loss = 0.710, time = 0.0703, time for 50 iter: 338.7808
Iter 600/635 training loss = 0.682, time = 0.0753, time for 50 iter: 435.7821
------------------------------------
epoch 24 total training loss = 0.691
Total epoch time = 4507.50
------------------------------------
Iter 50 test loss = 0.634 , time = 0.04
Iter 100 test loss = 0.673 , time = 0.04
Iter 150 test loss = 0.680 , time = 0.03
Iter 200 test loss = 0.705 , time = 0.04
Iter 250 test loss = 0.690 , time = 0.04
------------------------------------
total test loss = 0.673
total traslation error: 103.96931182989017 cm
total rotation error: 2.984354945117486
------------------------------------
Model saved as ./checkpoints_test/kitti/00/checkpoint_r10.00_t2.00_e24_0.673.tar
This is 25-th epoch
Iter 50/635 training loss = 0.712, time = 0.0713, time for 50 iter: 353.4371
Iter 100/635 training loss = 0.679, time = 0.0738, time for 50 iter: 323.9671
Iter 150/635 training loss = 0.645, time = 0.0724, time for 50 iter: 314.6247
Iter 200/635 training loss = 0.654, time = 0.0759, time for 50 iter: 313.2807
Iter 250/635 training loss = 0.669, time = 0.0753, time for 50 iter: 384.7621
Iter 300/635 training loss = 0.697, time = 0.0712, time for 50 iter: 310.0028
Iter 350/635 training loss = 0.686, time = 0.0764, time for 50 iter: 418.9090
Iter 400/635 training loss = 0.655, time = 0.0750, time for 50 iter: 291.5867
Iter 450/635 training loss = 0.689, time = 0.0755, time for 50 iter: 315.3087
Iter 500/635 training loss = 0.662, time = 0.0727, time for 50 iter: 404.6544
Iter 550/635 training loss = 0.678, time = 0.0728, time for 50 iter: 345.9649
Iter 600/635 training loss = 0.674, time = 0.0740, time for 50 iter: 385.9240
------------------------------------
epoch 25 total training loss = 0.672
Total epoch time = 4460.19
------------------------------------
Iter 50 test loss = 0.641 , time = 0.04
Iter 100 test loss = 0.693 , time = 0.04
Iter 150 test loss = 0.702 , time = 0.03
Iter 200 test loss = 0.732 , time = 0.04
Iter 250 test loss = 0.723 , time = 0.04
------------------------------------
total test loss = 0.695
total traslation error: 106.93432531165699 cm
total rotation error: 2.9634137858223006
------------------------------------
This is 26-th epoch
Iter 50/635 training loss = 0.656, time = 0.0732, time for 50 iter: 380.9354
Iter 100/635 training loss = 0.662, time = 0.0698, time for 50 iter: 303.0119
Iter 150/635 training loss = 0.688, time = 0.0750, time for 50 iter: 304.0633
Iter 200/635 training loss = 0.678, time = 0.0746, time for 50 iter: 378.2382
Iter 250/635 training loss = 0.645, time = 0.0749, time for 50 iter: 402.5860
Iter 300/635 training loss = 0.677, time = 0.0730, time for 50 iter: 274.4401
Iter 350/635 training loss = 0.625, time = 0.0731, time for 50 iter: 348.8561
Iter 400/635 training loss = 0.630, time = 0.0727, time for 50 iter: 408.0383
Iter 450/635 training loss = 0.664, time = 0.0731, time for 50 iter: 287.8540
Iter 500/635 training loss = 0.642, time = 0.0735, time for 50 iter: 417.5100
Iter 550/635 training loss = 0.647, time = 0.0743, time for 50 iter: 370.7228
Iter 600/635 training loss = 0.658, time = 0.0778, time for 50 iter: 439.0936
------------------------------------
epoch 26 total training loss = 0.657
Total epoch time = 4548.50
------------------------------------
Iter 50 test loss = 0.633 , time = 0.04
Iter 100 test loss = 0.691 , time = 0.04
Iter 150 test loss = 0.655 , time = 0.03
Iter 200 test loss = 0.673 , time = 0.04
Iter 250 test loss = 0.683 , time = 0.04
------------------------------------
total test loss = 0.664
total traslation error: 103.26745194177012 cm
total rotation error: 2.924520238016545
------------------------------------
Model saved as ./checkpoints_test/kitti/00/checkpoint_r10.00_t2.00_e26_0.664.tar
This is 27-th epoch
Iter 50/635 training loss = 0.672, time = 0.0728, time for 50 iter: 329.3036
Iter 100/635 training loss = 0.608, time = 0.0722, time for 50 iter: 345.7043
Iter 150/635 training loss = 0.641, time = 0.0737, time for 50 iter: 347.7878
Iter 200/635 training loss = 0.618, time = 0.0721, time for 50 iter: 358.8042
Iter 250/635 training loss = 0.648, time = 0.0718, time for 50 iter: 280.2775
Iter 300/635 training loss = 0.647, time = 0.0755, time for 50 iter: 342.2999
Iter 350/635 training loss = 0.658, time = 0.0743, time for 50 iter: 377.0527
Iter 400/635 training loss = 0.627, time = 0.0735, time for 50 iter: 379.9212
Iter 450/635 training loss = 0.631, time = 0.0719, time for 50 iter: 350.9984
Iter 500/635 training loss = 0.632, time = 0.0756, time for 50 iter: 377.1782
Iter 550/635 training loss = 0.639, time = 0.0746, time for 50 iter: 378.5042
Iter 600/635 training loss = 0.631, time = 0.0734, time for 50 iter: 349.4549
------------------------------------
epoch 27 total training loss = 0.637
Total epoch time = 4453.30
------------------------------------
Iter 50 test loss = 0.532 , time = 0.04
Iter 100 test loss = 0.608 , time = 0.04
Iter 150 test loss = 0.622 , time = 0.03
Iter 200 test loss = 0.630 , time = 0.04
Iter 250 test loss = 0.659 , time = 0.04
------------------------------------
total test loss = 0.607
total traslation error: 96.50378575227356 cm
total rotation error: 3.0459633647437347
------------------------------------
Model saved as ./checkpoints_test/kitti/00/checkpoint_r10.00_t2.00_e27_0.607.tar
This is 28-th epoch
Iter 50/635 training loss = 0.657, time = 0.0718, time for 50 iter: 288.5815
Iter 100/635 training loss = 0.590, time = 0.0762, time for 50 iter: 363.4020
Iter 150/635 training loss = 0.622, time = 0.0726, time for 50 iter: 351.4384
Iter 200/635 training loss = 0.605, time = 0.0720, time for 50 iter: 381.4131
Iter 250/635 training loss = 0.610, time = 0.0733, time for 50 iter: 308.0020
Iter 300/635 training loss = 0.612, time = 0.0713, time for 50 iter: 380.2778
Iter 350/635 training loss = 0.631, time = 0.0756, time for 50 iter: 395.2808
Iter 400/635 training loss = 0.642, time = 0.0731, time for 50 iter: 399.1958
Iter 450/635 training loss = 0.648, time = 0.0734, time for 50 iter: 287.0974
Iter 500/635 training loss = 0.632, time = 0.0723, time for 50 iter: 411.1199
Iter 550/635 training loss = 0.606, time = 0.0734, time for 50 iter: 315.2922
Iter 600/635 training loss = 0.634, time = 0.0756, time for 50 iter: 361.7835
------------------------------------
epoch 28 total training loss = 0.623
Total epoch time = 4495.02
------------------------------------
Iter 50 test loss = 0.566 , time = 0.04
Iter 100 test loss = 0.613 , time = 0.04
Iter 150 test loss = 0.629 , time = 0.03
Iter 200 test loss = 0.629 , time = 0.04
Iter 250 test loss = 0.658 , time = 0.04
------------------------------------
total test loss = 0.615
total traslation error: 98.06402884934658 cm
total rotation error: 2.7163415100048933
------------------------------------
This is 29-th epoch
Iter 50/635 training loss = 0.625, time = 0.0741, time for 50 iter: 322.0732
Iter 100/635 training loss = 0.605, time = 0.0739, time for 50 iter: 379.2737
Iter 150/635 training loss = 0.630, time = 0.0754, time for 50 iter: 347.1973
Iter 200/635 training loss = 0.614, time = 0.0729, time for 50 iter: 302.6467
Iter 250/635 training loss = 0.595, time = 0.0734, time for 50 iter: 383.6702
Iter 300/635 training loss = 0.592, time = 0.0717, time for 50 iter: 399.3691
Iter 350/635 training loss = 0.626, time = 0.0773, time for 50 iter: 319.8613
Iter 400/635 training loss = 0.616, time = 0.0773, time for 50 iter: 338.8254
Iter 450/635 training loss = 0.600, time = 0.0766, time for 50 iter: 389.6779
Iter 500/635 training loss = 0.601, time = 0.0759, time for 50 iter: 341.2990
Iter 550/635 training loss = 0.565, time = 0.0724, time for 50 iter: 316.3221
Iter 600/635 training loss = 0.596, time = 0.0744, time for 50 iter: 452.8342
------------------------------------
epoch 29 total training loss = 0.603
Total epoch time = 4516.25
------------------------------------
Iter 50 test loss = 0.607 , time = 0.04
Iter 100 test loss = 0.627 , time = 0.04
Iter 150 test loss = 0.650 , time = 0.03
Iter 200 test loss = 0.641 , time = 0.04
Iter 250 test loss = 0.664 , time = 0.04
------------------------------------
total test loss = 0.635
total traslation error: 99.6912070154435 cm
total rotation error: 2.8834364917724047
------------------------------------
This is 30-th epoch
Iter 50/635 training loss = 0.594, time = 0.0714, time for 50 iter: 336.4889
Iter 100/635 training loss = 0.593, time = 0.0745, time for 50 iter: 345.4023
Iter 150/635 training loss = 0.637, time = 0.0762, time for 50 iter: 298.1666
Iter 200/635 training loss = 0.580, time = 0.0753, time for 50 iter: 390.8869
Iter 250/635 training loss = 0.589, time = 0.0713, time for 50 iter: 388.8565
Iter 300/635 training loss = 0.584, time = 0.0708, time for 50 iter: 364.4489
Iter 350/635 training loss = 0.554, time = 0.0746, time for 50 iter: 388.8941
Iter 400/635 training loss = 0.586, time = 0.0746, time for 50 iter: 416.5242
Iter 450/635 training loss = 0.584, time = 0.0891, time for 50 iter: 300.6789
Iter 500/635 training loss = 0.596, time = 0.0725, time for 50 iter: 436.8140
Iter 550/635 training loss = 0.614, time = 0.0750, time for 50 iter: 290.5658
Iter 600/635 training loss = 0.593, time = 0.0757, time for 50 iter: 407.9074
------------------------------------
epoch 30 total training loss = 0.591
Total epoch time = 4659.27
------------------------------------
Iter 50 test loss = 0.558 , time = 0.04
Iter 100 test loss = 0.595 , time = 0.04
Iter 150 test loss = 0.611 , time = 0.03
Iter 200 test loss = 0.612 , time = 0.04
Iter 250 test loss = 0.659 , time = 0.04
------------------------------------
total test loss = 0.603
total traslation error: 96.40315916947242 cm
total rotation error: 2.8585036429401223
------------------------------------
Model saved as ./checkpoints_test/kitti/00/checkpoint_r10.00_t2.00_e30_0.603.tar
This is 31-th epoch
Iter 50/635 training loss = 0.646, time = 0.0740, time for 50 iter: 413.6726
Iter 100/635 training loss = 0.582, time = 0.0732, time for 50 iter: 313.7080
Iter 150/635 training loss = 0.592, time = 0.0711, time for 50 iter: 320.2151
Iter 200/635 training loss = 0.570, time = 0.0747, time for 50 iter: 345.9824
Iter 250/635 training loss = 0.564, time = 0.0746, time for 50 iter: 315.7542
Iter 300/635 training loss = 0.573, time = 0.0731, time for 50 iter: 408.1113
Iter 350/635 training loss = 0.573, time = 0.0721, time for 50 iter: 396.5366
Iter 400/635 training loss = 0.575, time = 0.0733, time for 50 iter: 401.4801
Iter 450/635 training loss = 0.587, time = 0.0743, time for 50 iter: 367.7216
Iter 500/635 training loss = 0.547, time = 0.0744, time for 50 iter: 412.6619
Iter 550/635 training loss = 0.570, time = 0.0750, time for 50 iter: 341.3324
Iter 600/635 training loss = 0.542, time = 0.0737, time for 50 iter: 318.1318
------------------------------------
epoch 31 total training loss = 0.575
Total epoch time = 4623.86
------------------------------------
Iter 50 test loss = 0.544 , time = 0.04
Iter 100 test loss = 0.584 , time = 0.04
Iter 150 test loss = 0.607 , time = 0.03
Iter 200 test loss = 0.583 , time = 0.04
Iter 250 test loss = 0.619 , time = 0.04
------------------------------------
total test loss = 0.584
total traslation error: 94.6183355348642 cm
total rotation error: 2.808773156699303
------------------------------------
Model saved as ./checkpoints_test/kitti/00/checkpoint_r10.00_t2.00_e31_0.584.tar
This is 32-th epoch
Iter 50/635 training loss = 0.590, time = 0.0742, time for 50 iter: 348.5944
Iter 100/635 training loss = 0.594, time = 0.0740, time for 50 iter: 389.5256
Iter 150/635 training loss = 0.587, time = 0.0742, time for 50 iter: 345.9095
Iter 200/635 training loss = 0.582, time = 0.0758, time for 50 iter: 380.9179
Iter 250/635 training loss = 0.569, time = 0.0761, time for 50 iter: 332.3816
Iter 300/635 training loss = 0.556, time = 0.0737, time for 50 iter: 335.1700
Iter 350/635 training loss = 0.576, time = 0.0715, time for 50 iter: 359.8296
Iter 400/635 training loss = 0.548, time = 0.0737, time for 50 iter: 330.7453
Iter 450/635 training loss = 0.551, time = 0.0724, time for 50 iter: 442.2506
Iter 500/635 training loss = 0.551, time = 0.0734, time for 50 iter: 381.0407
Iter 550/635 training loss = 0.552, time = 0.0720, time for 50 iter: 411.4096
Iter 600/635 training loss = 0.562, time = 0.0718, time for 50 iter: 400.1833
------------------------------------
epoch 32 total training loss = 0.567
Total epoch time = 4710.00
------------------------------------
Iter 50 test loss = 0.504 , time = 0.04
Iter 100 test loss = 0.574 , time = 0.04
Iter 150 test loss = 0.587 , time = 0.03
Iter 200 test loss = 0.568 , time = 0.04
Iter 250 test loss = 0.643 , time = 0.04
------------------------------------
total test loss = 0.572
total traslation error: 93.12331053182119 cm
total rotation error: 2.785565085412122
------------------------------------
Model saved as ./checkpoints_test/kitti/00/checkpoint_r10.00_t2.00_e32_0.572.tar
This is 33-th epoch
Iter 50/635 training loss = 0.562, time = 0.0725, time for 50 iter: 337.0088
Iter 100/635 training loss = 0.559, time = 0.0745, time for 50 iter: 346.1618
Iter 150/635 training loss = 0.544, time = 0.0720, time for 50 iter: 375.6615
Iter 200/635 training loss = 0.533, time = 0.0764, time for 50 iter: 330.3101
Iter 250/635 training loss = 0.574, time = 0.0779, time for 50 iter: 358.2354
Iter 300/635 training loss = 0.528, time = 0.0724, time for 50 iter: 370.9390
Iter 350/635 training loss = 0.585, time = 0.0750, time for 50 iter: 391.6593
Iter 400/635 training loss = 0.528, time = 0.0736, time for 50 iter: 281.2956
Iter 450/635 training loss = 0.512, time = 0.0757, time for 50 iter: 400.8536
Iter 500/635 training loss = 0.516, time = 0.0741, time for 50 iter: 367.7748
Iter 550/635 training loss = 0.574, time = 0.0751, time for 50 iter: 321.3908
Iter 600/635 training loss = 0.558, time = 0.0743, time for 50 iter: 437.7788
------------------------------------
epoch 33 total training loss = 0.545
Total epoch time = 4543.93
------------------------------------
Iter 50 test loss = 0.521 , time = 0.04
Iter 100 test loss = 0.549 , time = 0.04
Iter 150 test loss = 0.565 , time = 0.03
Iter 200 test loss = 0.566 , time = 0.04
Iter 250 test loss = 0.655 , time = 0.04
------------------------------------
total test loss = 0.568
total traslation error: 92.81081352914333 cm
total rotation error: 2.773179437116074
------------------------------------
Model saved as ./checkpoints_test/kitti/00/checkpoint_r10.00_t2.00_e33_0.568.tar
This is 34-th epoch
Iter 50/635 training loss = 0.578, time = 0.0745, time for 50 iter: 350.0133
Iter 100/635 training loss = 0.552, time = 0.0747, time for 50 iter: 319.3377
Iter 150/635 training loss = 0.529, time = 0.0774, time for 50 iter: 340.5743
